D:\mywork\couponcenter\coupon_dal\src\main\java\com\xianzaishi\couponcenter\dal\coupon\dataobject\CouponDO.java
D:\mywork\couponcenter\coupon_dal\src\main\java\com\xianzaishi\couponcenter\dal\coupon\dao\UserCouponDOMapper.java
D:\mywork\couponcenter\coupon_dal\src\main\java\com\xianzaishi\couponcenter\dal\order\dao\OrderTmpDOMapper.java
D:\mywork\couponcenter\coupon_dal\src\main\java\com\xianzaishi\couponcenter\dal\coupon\query\CouponQuery.java
D:\mywork\couponcenter\coupon_dal\src\main\java\com\xianzaishi\couponcenter\dal\order\dataobject\OrderTmpDO.java
D:\mywork\couponcenter\coupon_dal\src\main\java\com\xianzaishi\couponcenter\dal\coupon\dataobject\UserCouponDO.java
D:\mywork\couponcenter\coupon_dal\src\main\java\com\xianzaishi\couponcenter\dal\coupon\query\UserCouponQuery.java
D:\mywork\couponcenter\coupon_dal\src\main\java\com\xianzaishi\couponcenter\dal\discount\dao\DiscountInfoDOMapper.java
D:\mywork\couponcenter\coupon_dal\src\main\java\com\xianzaishi\couponcenter\dal\discount\dataobject\DiscountInfoDO.java
D:\mywork\couponcenter\coupon_dal\src\main\java\com\xianzaishi\couponcenter\dal\discount\query\DiscountRefQuery.java
D:\mywork\couponcenter\coupon_dal\src\main\java\com\xianzaishi\couponcenter\dal\coupon\dao\CouponDOMapper.java
D:\mywork\couponcenter\coupon_dal\src\main\java\com\xianzaishi\couponcenter\dal\coupon\dataobject\CouponInfoDO.java
D:\mywork\couponcenter\coupon_dal\src\main\java\com\xianzaishi\couponcenter\dal\discount\dataobject\DiscountRefDO.java
D:\mywork\couponcenter\coupon_dal\src\main\java\com\xianzaishi\couponcenter\dal\discount\query\DiscountInfoQuery.java
D:\mywork\couponcenter\coupon_dal\src\main\java\com\xianzaishi\couponcenter\dal\discount\dao\DiscountRefDOMapper.java
